{
	"weekdays": [
		1,
		2,
		3,
		2,
		3,
		0,
		0
	],
	"special": [],
	"schedules": [
		{
			"name": "Weekend",
			"periods": []
		},
		{
			"name": "Monday",
			"periods": [],
			"start": [
				9,
				0
			],
			"end": [
				4,
				0
			]
		},
		{
			"name": "Orange",
			"periods": [
				{
					"name": "Early Bird",
					"start": [
						7,
						15
					],
					"end": [
						8,
						25
					],
					"index": -1
				},
				{
					"name": "AM Support",
					"start": [
						8,
						30
					],
					"end": [
						8,
						55
					],
					"index": 0
				},
				{
					"name": "First Period",
					"start": [
						9,
						0
					],
					"end": [
						10,
						10
					],
					"index": 1
				},
				{
					"name": "Second Period",
					"start": [
						10,
						15
					],
					"end": [
						11,
						25
					],
					"index": 2
				},
				{
					"name": "Third Period",
					"start": [
						11,
						30
					],
					"end": [
						12,
						40
					],
					"index": 3
				},
				{
					"name": "Break",
					"start": [
						12,
						40
					],
					"end": [
						1,
						15
					],
					"index": -2
				},
				{
					"name": "Fourth Period",
					"start": [
						1,
						15
					],
					"end": [
						2,
						25
					],
					"index": 4
				},
				{
					"name": "Fifth Period",
					"start": [
						2,
						30
					],
					"end": [
						3,
						40
					],
					"index": 5
				}
			],
			"start": [
				7,
				15
			],
			"end": [
				15,
				40
			]
		},
		{
			"name": "Blue",
			"periods": [
				{
					"name": "Early Bird",
					"start": [
						7,
						15
					],
					"end": [
						8,
						25
					],
					"index": -1
				},
				{
					"name": "AM Support",
					"start": [
						8,
						30
					],
					"end": [
						8,
						55
					],
					"index": 0
				},
				{
					"name": "Sixth Period",
					"start": [
						9,
						0
					],
					"end": [
						10,
						10
					],
					"index": 1
				},
				{
					"name": "Seventh Period",
					"start": [
						10,
						15
					],
					"end": [
						11,
						25
					],
					"index": 2
				},
				{
					"name": "Eighth Period",
					"start": [
						11,
						30
					],
					"end": [
						12,
						40
					],
					"index": 3
				},
				{
					"name": "Break",
					"start": [
						12,
						40
					],
					"end": [
						1,
						15
					],
					"index": -2
				},
				{
					"name": "Ninth Period",
					"start": [
						1,
						15
					],
					"end": [
						2,
						25
					],
					"index": 4
				},
				{
					"name": "Office Hours",
					"start": [
						2,
						30
					],
					"end": [
						3,
						40
					],
					"index": 5
				}
			],
			"start": [
				7,
				15
			],
			"end": [
				15,
				40
			]
		}
	]
}